DSC520 Final Project Assignment Final Results and Summary
…
Finally, I want to look at the Regional Service Owner (RSO) field, as that field defines the J&J Lead/Manager on my team who is responsible for the support service for the J&J management grouping. While the RSO doesent work directly on tickets, he/she manages the support teams for the applications her portfolio, and she will ultimately be responsible for the further investigations and improvement activities that this analysis will point to requiring.

One variable that I am not going to look at is the actual application, for two reasons.

Most of the Digital applications are built on Appication Platform templated, with the applications themselves configured to look and perform similarly for over 90% of their content. As such, it doesnt necessarily make sense to look at the individual applications as it does their underlying platforms. And, while I would very much like to include that in my analysis, it is, unfortunately, a missing attribute in our Configuration Management Database (CMDB). When the CMDB was put together, this was not deemed a critical field to track, so it was not included. My teams have built some tracking into some of our SharePoint listings of applications, but the data in these home-grown lists are not clean enough to be useful for this purpose.

Many of the applications only have a few tickets, so the data will be too sparse for these to be useful.

To make the analysis a bit more straightforward, Ill create a data frame with only the relevant variables.

finalAnalysisData <- srAppDataTSOnlySLA[c(5,6,7,13,15,17,27,39,40,46,48,54,58:60)]
finalAnalysisData

## # A tibble: 10,989 x 15
##     MTTR APPL_TIER SUPPORT_GROUP APPLICATION priority CAT_CATLG_DESC
##    <dbl> <chr>     <chr>         <chr>       <chr>    <chr>         
##  1  480. Silver    DIG ECOM SOC CANVAS-PLA Priorit Modify Conten
##  2  480. Silver    DIG ECOM SOC JNJVISIONC Priorit Request busin
##  3  480. Silver    DIG ECOM SOC ACUVUE.NO  Priorit Request busin
##  4  479. Bronze    DIG ECOM SOC SHAREPOINT Priorit Request Gener
##  5  479. Bronze    DIG ECOM SOC SHAREPOINT Priorit Request Gener
##  6  479. Silver    DIG ECOM SOC JANSSEN.CO Priorit Modify Conten
##  7  479. Silver    DIG ECOM SOC ACUVUE.COM Priorit Request busin
##  8  479. Silver    DIG ECOM SOC ACUVUE.COM Priorit Request busin
##  9  479. Silver    DIG ECOM SOC ACUVUE.COM Priorit Request busin
## 10  479. Gold      DIG ECOM SOC TRAINR      Priorit Request busin
## #  with 10,979 more rows, and 9 more variables: `Dv Cmdb Ci` <chr>, `BT
## #   Company` <chr>, `Service Level Medal` <chr>, `Managing Region` <chr>,
## #   Rso <chr>, GOC <chr>, `T-Shirt` <chr>, Day_Opened <ord>,
## #   Month_Opened <ord>
…
